{
    "KPlugin": {
        "BugReportUrl": "https://bugs.kde.org/enter_bug.cgi?product=systemsettings&component=kcm_keys",
        "Description": "Configure Keyboard Shortcuts",
        "Description[ar]": "يضبط اختصارات لوحة المفاتيح",
        "Description[az]": "Klaviatura qısayollarını tənzimləyin",
        "Description[be]": "Наладжванне спалучэнняў клавіш",
        "Description[bg]": "Конфигуриране на клавишни комбинации",
        "Description[ca@valencia]": "Configura les dreceres de teclat",
        "Description[ca]": "Configura les dreceres de teclat",
        "Description[cs]": "Nastavit klávesové zkratky",
        "Description[da]": "Indstil tastaturgenveje",
        "Description[de]": "Tastatur-Kurzbefehle einrichten",
        "Description[en_GB]": "Configure Keyboard Shortcuts",
        "Description[eo]": "Agordi Klavkombinojn",
        "Description[es]": "Configurar los atajos de teclado",
        "Description[et]": "Kiirklahvide seadistamine",
        "Description[eu]": "Konfiguratu teklatuko lasterbideak",
        "Description[fi]": "Pikanäppäinasetukset",
        "Description[fr]": "Configurer les raccourcis de clavier",
        "Description[gl]": "Configurar os atallos de teclado.",
        "Description[he]": "הגדרת קיצורי מקשים",
        "Description[hu]": "Globális billentyűparancsok beállítása",
        "Description[ia]": "Configura Vias breve de claviero ",
        "Description[id]": "Konfigurasi Pintasan Keyboard",
        "Description[ie]": "Configurar li rapid-tastes",
        "Description[is]": "Grunnstilla flýtilykla",
        "Description[it]": "Configura le scorciatoie della tastiera",
        "Description[ja]": "キーボードショートカットを設定",
        "Description[ka]": "მალსახმობების გამართვა",
        "Description[ko]": "키보드 단축키 설정",
        "Description[lt]": "Konfigūruoti sparčiuosius klavišus",
        "Description[nl]": "Sneltoetsen configureren",
        "Description[nn]": "Set opp snøggtastar",
        "Description[pa]": "ਕੀ-ਬੋਰਡ ਸ਼ਾਰਟਕੱਟ ਦੀ ਸੰਰਚਨਾ",
        "Description[pl]": "Ustawienia skrótów klawiszowych",
        "Description[pt]": "Configurar os Atalhos do Teclado",
        "Description[pt_BR]": "Configurar atalhos do teclado",
        "Description[ro]": "Configurează scurtăturile de tastatură",
        "Description[ru]": "Настройка комбинаций клавиш",
        "Description[sk]": "Nastaviť klávesové skratky",
        "Description[sl]": "Nastavi tipkovne bližnjice",
        "Description[sv]": "Anpassa snabbtangenter",
        "Description[ta]": "விசை சுருக்குவழிகளை அமையுங்கள்",
        "Description[tr]": "Klavye Kısayollarını Yapılandır",
        "Description[uk]": "Налаштовування клавіатурних скорочень",
        "Description[vi]": "Cấu hình phím tắt",
        "Description[x-test]": "xxConfigure Keyboard Shortcutsxx",
        "Description[zh_CN]": "配置键盘快捷键",
        "Description[zh_TW]": "設定鍵盤快捷鍵",
        "Icon": "preferences-desktop-keyboard-shortcut",
        "Name": "Shortcuts",
        "Name[ar]": "الاختصارات",
        "Name[az]": "Qısayollar",
        "Name[be]": "Спалучэнні клавіш",
        "Name[bg]": "Клавишни комбинации",
        "Name[ca@valencia]": "Dreceres",
        "Name[ca]": "Dreceres",
        "Name[cs]": "Zkratky",
        "Name[da]": "Genveje",
        "Name[de]": "Kurzbefehle",
        "Name[en_GB]": "Shortcuts",
        "Name[eo]": "Klavkombinoj",
        "Name[es]": "Atajos de teclado",
        "Name[et]": "Kiirklahvid",
        "Name[eu]": "Lasterbideak",
        "Name[fi]": "Pikanäppäimet",
        "Name[fr]": "Raccourcis",
        "Name[gl]": "Atallos",
        "Name[he]": "קיצורי מקשים",
        "Name[hu]": "Gyorsbillentyűk",
        "Name[ia]": "Vias Breve",
        "Name[id]": "Pintasan",
        "Name[ie]": "Rapid-tastes",
        "Name[is]": "Flýtilyklar",
        "Name[it]": "Scorciatoie",
        "Name[ja]": "ショートカット",
        "Name[ka]": "მალსახმობები",
        "Name[ko]": "단축키",
        "Name[lt]": "Spartieji klavišai",
        "Name[nl]": "Sneltoetsen",
        "Name[nn]": "Snar­vegar",
        "Name[pa]": "ਸ਼ਾਰਟਕੱਟ",
        "Name[pl]": "Skróty",
        "Name[pt]": "Atalhos",
        "Name[pt_BR]": "Atalhos",
        "Name[ro]": "Scurtături",
        "Name[ru]": "Комбинации клавиш",
        "Name[sk]": "Skratky",
        "Name[sl]": "Bližnjice",
        "Name[sv]": "Genvägar",
        "Name[ta]": "சுருக்குவழிகள்",
        "Name[tr]": "Kısayollar",
        "Name[uk]": "Скорочення",
        "Name[vi]": "Phím tắt",
        "Name[x-test]": "xxShortcutsxx",
        "Name[zh_CN]": "快捷键",
        "Name[zh_TW]": "捷徑"
    },
    "X-DocPath": "kcontrol/keys/index.html",
    "X-KDE-Keywords": "keys,global key bindings,key scheme,key bindings,shortcuts,application shortcuts,global shortcuts,keyboard,hotkeys,macro",
    "X-KDE-Keywords[az]": "keys,global key bindings,key scheme,key bindings,shortcuts,application shortcuts,global shortcuts,keyboard,hotkeys,macro,düymələr,ümumi düymələr,düymə sxemi,düymə bağlantıları,qısayollar,tətbiq qısayolları,ümumi qısayollar,klaviatura,qaynaq düymələr,böyük",
    "X-KDE-Keywords[ca]": "tecles,lligams de tecla globals,esquema de tecles,lligams de tecla,dreceres,dreceres d'aplicació,dreceres globals,teclat,dreceres de teclat,macro",
    "X-KDE-Keywords[cs]": "klávesy,globální zkratky,schéma kláves,zkratky,zkratky aplikací,globální zkratky,klávesnice,makro",
    "X-KDE-Keywords[en_GB]": "keys,global key bindings,key scheme,key bindings,shortcuts,application shortcuts,global shortcuts,keyboard,hotkeys,macro",
    "X-KDE-Keywords[es]": "teclas,asociaciones globales de teclas,esquema de teclas,asociaciones de teclas,accesos rápidos,accesos rápidos de aplicaciones,accesos rápidos globales,teclado,atajos de teclado,atajos,macro",
    "X-KDE-Keywords[eu]": "teklak,tekla elkarketa orokorrak,tekla-antolaera,laster-teklak,lasterbideak,aplikazioen lasterbideak,lasterbide orokorrak,teklatua,laster-teklak,makroa",
    "X-KDE-Keywords[fi]": "näppäimet,yleiset näppäinsidokset,näppäinteema,näppäinsidokset,näppäinkytkökset,pikanäppäimet,sovelluspikanäppäimet,yleiset pikanäppäimet,näppäimistö,makro",
    "X-KDE-Keywords[fr]": "Touches, Association globale des touches, Schéma des touches, Association de touches, Raccourci des applications, Raccourcis globaux, clavier, touches de raccourci, macro",
    "X-KDE-Keywords[hu]": "billentyűk,globális gyorsbillentyűk,billentyűséma,gyorsbillentyűk,alkalmazás gyorsbillentyűk,globális gyorsbillentyűk,billentyűzet,gyorsbillentyűk,makró",
    "X-KDE-Keywords[ia]": "claves,ligamines de clave global,schema de clave,ligamines de clave,vias breve,vias breve de application,vias breve global,claviero,hotkeys,macro",
    "X-KDE-Keywords[it]": "tasti,scorciatoie da tastiera globali,schema di tasti,scorciatoie,scorciatoie delle applicazioni,scorciatoie globali,tastiera,tasti di scelta rapida,macro",
    "X-KDE-Keywords[ko]": "keys,global key bindings,key scheme,key bindings,shortcuts,application shortcuts,global shortcuts,keyboard,hotkeys,macro,키,전역 키 바인딩,키 바인딩,단축키,프로그램 단축키,전역 단축키,키보드,단축키,매크로",
    "X-KDE-Keywords[nl]": "toetsen,globale toetsbindingen,toetsenschema,toetsbindingen,sneltoetsen,sneltoetsen van toepassing,globale sneltoetsen,toetsenbord,hotkeys,macro",
    "X-KDE-Keywords[nn]": "tastar,globale tastebindinger,tastaturutforming,tastebindinger,snarvegar,snøggtastar,programsnarvegar,globale snarvegar,tastatur,hotkeys,makro",
    "X-KDE-Keywords[pl]": "Klawisze,Globalne powiązania klawiszy,Motyw klawiszy,Powiązania klawiszy,skróty,skróty programów,globalne skróty,klawiatura,gorące klawisze,makro",
    "X-KDE-Keywords[pt]": "teclas,combinações de teclas globais,esquema de teclas,combinações de teclas,atalhos de teclado,atalhos,atalhos das aplicações,teclado,teclas especiais,macro",
    "X-KDE-Keywords[pt_BR]": "teclas,combinações de teclas global,esquema de teclas,atalhos de teclado,atalhos,atalhos dos aplicativos, atalhos globais,teclado,teclas de função,macro",
    "X-KDE-Keywords[ru]": "keys,global key bindings,key scheme,key bindings,shortcuts,application shortcuts,global shortcuts,keyboard,hotkeys,macro,клавиши,глобальные привязки клавиш,схема,привязки клавиш,комбинации клавиш,комбинации клавиш в приложениях,глобальные привязки клавиш,клавиатура",
    "X-KDE-Keywords[sk]": "Klávesy,Globálne klávesové skratky,Klávesová schéma,Klávesové skratky,skratky,skratky aplikácie,globálne skratky,skratky,makro",
    "X-KDE-Keywords[sl]": "tipke,splošne tipkovne bližnjice,tipkovna shema,shema tipk,tipkovne bližnjice,vezave tipk,bližnjice,programske bližnjice,splošne bližnjice,tipkovnica,vroče tipke,makro",
    "X-KDE-Keywords[sv]": "tangenter,globala tangentbindingar,tangentschema,tangentbindingar,genvägar,programgenvägar,globala genvägar,tangentbord,kortkommandon,makro",
    "X-KDE-Keywords[ta]": "keys, global key bindings, key scheme, key bindings,shortcuts,application shortcuts,global shortcuts,keyboard,hotkeys,macro, விசை, விசைப்பலகை, சுருக்குவழிகள், குறுக்குவழிகள்",
    "X-KDE-Keywords[tr]": "tuşlar,genel kısayollar,klavye şeması,klavye kısayolları,kısayollar,uygulama kısayolları,genel kısayollar,klavye,tuştakımı, kısayol tuşları,makro",
    "X-KDE-Keywords[uk]": "keys,global key bindings,key scheme,key bindings,shortcuts,application shortcuts,global shortcuts,keyboard,hotkeys,macro,клавіатура,скорочення,клавіатурні скорочення,схема,загальні клавіатурні скорочення,клавіатурні скорочення програми,загальні скорочення,макроси",
    "X-KDE-Keywords[vi]": "keys,global key bindings,key scheme,key bindings,shortcuts,application shortcuts,global shortcuts,keyboard,hotkeys,macro,phím,kết buộc phím toàn cục,quy hoạch phím,kết buộc phím,phím tắt,phím tắt ứng dụng,phím tắt toàn cục,bàn phím,phím nóng,vĩ lệnh",
    "X-KDE-Keywords[x-test]": "xxkeysxx,xxglobal key bindingsxx,xxkey schemexx,xxkey bindingsxx,xxshortcutsxx,xxapplication shortcutsxx,xxglobal shortcutsxx,xxkeyboardxx,xxhotkeysxx,xxmacroxx",
    "X-KDE-Keywords[zh_CN]": "keys,global key bindings,key scheme,key bindings,shortcuts,application shortcuts,global shortcuts,keyboard,hotkeys,macro,按键,全局键绑定,按键方案,快捷键,应用程序快捷键,应用快捷键,全局快捷键,键盘,热键,宏",
    "X-KDE-System-Settings-Parent-Category": "keyboard",
    "X-KDE-Weight": 200
}
